{
    "title": "Event data for Account Balance Requested event",
    "description": "Event data for Account Balance Requested event",	
    "type": "object",
    "javaType" : "com.theglue.core.journey.tutorial.manageaccountbalance.events.AccountBalanceRequested",
    "schemaType":"event",
	"properties": {
		"accountList": {
			"$ref": "../data/manage-account-balance.json#/definitions/accountList" 
		}
	},
	"required": [ "accountList" ]
}
