{
	"title": "Account Journey",
	"description": "Account Journey - Generic schema",
	"type": "object",
	"javaType" : "com.theglue.core.journey.tutorial.account.data.Account",
	"definitions": {
		"accountReference": {
			"description": "Unique reference of the account",
			"type": "string",
			"queryable": "true"
		},
		"accountType": {
			"description": "Type of account",
			"type": "string"
		},
		"balanceAmount": {
			"description": "Account balance amount",
			"type": "number"
		},
		"returnCode": {
			"description": "Return code",
			"type": "string",
			"maxLength": 4
		},
		"returnMessage": {
			"description": "Return message",
			"type": "string"
		},
		"errorResult": {
			"description": "Error result",
			"type": "string"
		}							
	}
}
